<?xml version="1.0" encoding="UTF-8" standalone="no"?>
<!-- Created with Inkscape (http://www.inkscape.org/) -->

<svg
   width="95.07547mm"
   height="95.075485mm"
   viewBox="0 0 95.07547 95.075486"
   version="1.1"
   id="svg1"
   inkscape:version="1.3 (1:1.3+202307231459+0e150ed6c4)"
   sodipodi:docname="icons.svg"
   xmlns:inkscape="http://www.inkscape.org/namespaces/inkscape"
   xmlns:sodipodi="http://sodipodi.sourceforge.net/DTD/sodipodi-0.dtd"
   xmlns="http://www.w3.org/2000/svg"
   xmlns:svg="http://www.w3.org/2000/svg">
  <sodipodi:namedview
     id="namedview1"
     pagecolor="#505050"
     bordercolor="#eeeeee"
     borderopacity="1"
     inkscape:showpageshadow="0"
     inkscape:pageopacity="0"
     inkscape:pagecheckerboard="0"
     inkscape:deskcolor="#d1d1d1"
     inkscape:document-units="mm"
     inkscape:zoom="1.6735966"
     inkscape:cx="95.602491"
     inkscape:cy="2879.4275"
     inkscape:window-width="1920"
     inkscape:window-height="1029"
     inkscape:window-x="0"
     inkscape:window-y="25"
     inkscape:window-maximized="1"
     inkscape:current-layer="layer1">
    <inkscape:page
       x="-4.6054196e-09"
       y="7.6782608e-06"
       width="95.07547"
       height="95.075485"
       id="page2"
       margin="0"
       bleed="0"
       inkscape:label="gallery" />
  </sodipodi:namedview>
  <defs
     id="defs1" />
  <g
     inkscape:label="Layer 1"
     inkscape:groupmode="layer"
     id="layer1"
     transform="translate(-86.613908,-552.4323)">
    <path
       id="rect2"
       style="color:#000000;fill:#800080;stroke-linecap:square;stroke-linejoin:round;-inkscape-stroke:none"
       d="m 100.43336,559.26358 c -1.932753,4.5e-4 -3.499364,1.5673 -3.49953,3.50005 v 36.38072 c 1.66e-4,1.93275 1.566777,3.4996 3.49953,3.50005 H 126.223 v -5.94176 h -23.34793 v -31.4973 h 41.41556 v 9.39788 l 5.94176,1.05833 v -12.89792 c -1.7e-4,-1.93296 -1.56709,-3.49988 -3.50005,-3.50005 z"
       sodipodi:nodetypes="cccccccccccccc" />
    <path
       id="rect3"
       style="color:#000000;fill:#800080;stroke-linecap:square;stroke-linejoin:round;-inkscape-stroke:none"
       d="m 123.66967,572.15427 c -1.93275,4.5e-4 -3.49936,1.5673 -3.49953,3.50005 v 24.61761 h 5.94124 v -22.1759 h 41.41555 v 31.49936 l -10.33011,-1.05833 v 7.00009 h 12.77183 c 1.93295,-1.7e-4 3.49987,-1.56709 3.50004,-3.50004 v -36.38279 c -1.7e-4,-1.93295 -1.56709,-3.49988 -3.50004,-3.50005 z"
       sodipodi:nodetypes="cccccccccccccc" />
    <path
       style="color:#000000;fill:#800080;stroke-linecap:square;stroke-linejoin:round;-inkscape-stroke:none"
       d="m 112.02734,596.70287 c -1.93292,1.9e-4 -3.49981,1.56708 -3.5,3.5 v 36.38281 c 1.9e-4,1.93292 1.56708,3.49981 3.5,3.5 h 46.29883 c 1.93292,-1.9e-4 3.49981,-1.56708 3.5,-3.5 v -36.38281 c -1.9e-4,-1.93292 -1.56708,-3.49981 -3.5,-3.5 z m 2.44167,5.94167 h 41.41549 v 31.49947 h -41.41549 z"
       id="rect4"
       sodipodi:nodetypes="cccccccccccccc" />
  </g>
</svg>
