<?xml version="1.0" encoding="UTF-8" standalone="no"?>
<!-- Created with Inkscape (http://www.inkscape.org/) -->

<svg
   width="94.775467mm"
   height="94.775475mm"
   viewBox="0 0 94.775467 94.775475"
   version="1.1"
   id="svg1"
   xmlns="http://www.w3.org/2000/svg"
   xmlns:svg="http://www.w3.org/2000/svg">
  <defs
     id="defs1" />
  <g
     id="layer1"
     transform="translate(-86.763908,-430.87394)">
    <g
       id="g11"
       transform="matrix(0.87019102,0,0,0.8708095,17.264465,-13.099154)"
       style="fill:#800080;fill-opacity:1;stroke:#ffffff;stroke-width:1.14876">
      <path
         id="path2"
         style="fill:#800080;fill-opacity:1;stroke:none;stroke-width:5.62895;stroke-linecap:round;stroke-linejoin:round;paint-order:fill markers stroke"
         d="m 175.35169,-134.47683 -34.81277,0.94948 a 2.8147565,2.8147565 0 0 0 -2.48052,3.99201 l 3.81846,8.28724 0.72391,1.57141 c -2.97486,1.16506 -9.47469,4.15746 -16.87014,10.38383 -7.60591,6.40358 -14.03152,16.759646 -14.03152,16.759646 a 2.5847199,2.5847199 0 0 0 0.80882,3.564733 2.5847199,2.5847199 0 0 0 3.5643,-0.808845 c 0,0 6.42475,-10.036842 12.98813,-15.562694 7.42966,-6.2552 13.45117,-8.82404 15.70084,-9.64502 l 0.93235,2.02419 3.81846,8.28725 a 2.8147565,2.8147565 0 0 0 4.64214,0.71093 l 23.36153,-25.81064 a 2.8147565,2.8147565 0 0 0 -2.16399,-4.70352 z m -69.1469,47.581793 a 13.247844,13.247844 0 0 0 -13.247638,13.247727 13.247844,13.247844 0 0 0 13.247638,13.248321 13.247844,13.247844 0 0 0 13.24764,-13.248321 13.247844,13.247844 0 0 0 -13.24764,-13.247727 z" />
      <g
         id="path11"
         style="fill:#800080;fill-opacity:1" />
      <path
         id="path20"
         style="fill:#800080;fill-opacity:1;stroke:none;stroke-width:5.62895;stroke-linecap:round;stroke-linejoin:round;paint-order:fill markers stroke"
         d="m 134.32367,390.92812 a 32.879242,32.855892 0 0 0 -32.87919,32.85584 32.879242,32.855892 0 0 0 32.87919,32.85583 32.879242,32.855892 0 0 0 32.87918,-32.85583 32.879242,32.855892 0 0 0 -32.87918,-32.85584 z m -14.7204,14.35507 a 3.790925,3.790925 0 0 1 2.68006,1.10912 l 12.03974,12.0312 12.04034,-12.0312 a 3.790925,3.790925 0 0 1 2.68124,-1.10912 3.790925,3.790925 0 0 1 2.68006,1.1115 3.790925,3.790925 0 0 1 -0.002,5.36104 l -12.03559,12.02704 12.03618,12.02764 a 3.790925,3.790925 0 0 1 0.002,5.36164 3.790925,3.790925 0 0 1 -5.3613,0.002 l -12.04034,-12.0312 -12.03974,12.0312 a 3.790925,3.790925 0 0 1 -5.3613,-0.002 3.790925,3.790925 0 0 1 0.002,-5.36164 L 128.96,423.78337 116.92381,411.75573 a 3.790925,3.790925 0 0 1 -0.002,-5.36104 3.790925,3.790925 0 0 1 2.68124,-1.1115 z" />
      <g
         id="path21"
         style="fill:#800080;fill-opacity:1">
        <path
           style="color:#000000;fill:#800080;fill-opacity:1;stroke:none;stroke-linecap:round;stroke-linejoin:round;-inkscape-stroke:none;paint-order:fill markers stroke"
           d="m 119.60408,409.07464 29.43901,29.41822"
           id="path25" />
      </g>
      <g
         id="path22"
         style="fill:#800080;fill-opacity:1">
        <path
           style="color:#000000;fill:#800080;fill-opacity:1;stroke:none;stroke-linecap:round;stroke-linejoin:round;-inkscape-stroke:none;paint-order:fill markers stroke"
           d="m 149.04309,409.07464 -29.43901,29.41822"
           id="path23" />
      </g>
      <path
         style="-inkscape-font-specification:Hanken;fill:#800080;fill-opacity:1;stroke:none;stroke-width:7.58185;stroke-linecap:round;stroke-linejoin:round;paint-order:fill markers stroke"
         d="m 130.76519,590.85594 q -1.51597,0 -2.55322,-1.03724 -1.03725,-1.03725 -1.03725,-2.47344 v -1.51597 q -2.79258,2.39364 -6.22347,3.75004 -3.4309,1.27661 -7.18094,1.27661 -4.22878,0 -7.97882,-1.59576 -3.75005,-1.67555 -6.542635,-4.46814 -2.792587,-2.79259 -4.46814,-6.46285 -1.595764,-3.75004 -1.595764,-7.97882 0,-4.22877 1.595764,-7.97882 1.675553,-3.75004 4.46814,-6.54263 2.792585,-2.79259 6.542635,-4.38835 3.75004,-1.67555 7.97882,-1.67555 3.75004,0 7.18094,1.3564 3.43089,1.27661 6.22347,3.67026 v -1.51598 q 0,-1.43619 1.03725,-2.47343 1.03725,-1.03725 2.55322,-1.03725 1.43619,0 2.47344,1.03725 1.03724,1.03724 1.03724,2.47343 v 34.06956 q 0,1.43619 -1.03724,2.47344 -1.03725,1.03724 -2.47344,1.03724 z m -16.99488,-33.98977 q -2.79259,0 -5.26602,1.11703 -2.39365,1.03725 -4.22878,2.87238 -1.83513,1.83513 -2.95216,4.30856 -1.03725,2.39365 -1.03725,5.18623 0,2.79259 1.03725,5.26603 1.11703,2.39364 2.95216,4.22877 1.83513,1.83513 4.22878,2.87238 2.47343,1.03724 5.26602,1.03724 2.79258,0 5.18623,-1.03724 2.47343,-1.03725 4.30856,-2.87238 1.83513,-1.83513 2.87238,-4.22877 1.03724,-2.47344 1.03724,-5.26603 0,-2.79258 -1.03724,-5.18623 -1.03725,-2.47343 -2.87238,-4.30856 -1.83513,-1.83513 -4.30856,-2.87238 -2.39365,-1.11703 -5.18623,-1.11703 z"
         id="text26"
         transform="scale(1.0003553,0.99964483)"
         aria-label="a" />
      <g
         id="g29"
         transform="translate(5.6951951)"
         style="fill:#800080;fill-opacity:1">
        <g
           id="path26"
           style="fill:#800080;fill-opacity:1">
          <path
             style="color:#000000;fill:#800080;fill-opacity:1;stroke:none;stroke-linecap:round;stroke-linejoin:round;-inkscape-stroke:none;paint-order:fill markers stroke"
             d="m 137.11757,522.55388 h 23.85104"
             id="path49" />
          <path
             style="color:#000000;fill:#800080;fill-opacity:1;stroke:none;stroke-linecap:round;stroke-linejoin:round;-inkscape-stroke:none;paint-order:fill markers stroke"
             d="m 137.11719,518.76367 a 3.790925,3.790925 0 0 0 -3.79102,3.79102 3.790925,3.790925 0 0 0 3.79102,3.79101 h 23.85156 a 3.790925,3.790925 0 0 0 3.79102,-3.79101 3.790925,3.790925 0 0 0 -3.79102,-3.79102 z"
             id="path50" />
        </g>
        <g
           id="path27"
           style="fill:#800080;fill-opacity:1">
          <path
             style="color:#000000;fill:#800080;fill-opacity:1;stroke:none;stroke-linecap:round;stroke-linejoin:round;-inkscape-stroke:none;paint-order:fill markers stroke"
             d="m 137.11757,603.51479 h 23.85104"
             id="path51" />
          <path
             style="color:#000000;fill:#800080;fill-opacity:1;stroke:none;stroke-linecap:round;stroke-linejoin:round;-inkscape-stroke:none;paint-order:fill markers stroke"
             d="m 137.11719,599.72461 a 3.790925,3.790925 0 0 0 -3.79102,3.79101 3.790925,3.790925 0 0 0 3.79102,3.79102 h 23.85156 a 3.790925,3.790925 0 0 0 3.79102,-3.79102 3.790925,3.790925 0 0 0 -3.79102,-3.79101 z"
             id="path52" />
        </g>
        <g
           id="path28"
           style="fill:#800080;fill-opacity:1">
          <path
             style="color:#000000;fill:#800080;fill-opacity:1;stroke:none;stroke-linecap:round;stroke-linejoin:round;-inkscape-stroke:none;paint-order:fill markers stroke"
             d="M 149.04309,522.55388 V 603.5148"
             id="path47" />
          <path
             style="color:#000000;fill:#800080;fill-opacity:1;stroke:none;stroke-linecap:round;stroke-linejoin:round;-inkscape-stroke:none;paint-order:fill markers stroke"
             d="m 149.04297,518.76367 a 3.790925,3.790925 0 0 0 -3.79102,3.79102 v 80.96093 a 3.790925,3.790925 0 0 0 3.79102,3.79102 3.790925,3.790925 0 0 0 3.79101,-3.79102 v -80.96093 a 3.790925,3.790925 0 0 0 -3.79101,-3.79102 z"
             id="path48" />
        </g>
      </g>
    </g>
  </g>
</svg>
